Análisis y visualización de datos con R
…
Selección columnas: select()

datos |> selecciono(var1, var2, ...)

starwars |> select(var1, var2, ...)

La opción más sencilla para seleccionar variables por nombre es select(), dando como argumentos los nombres de columnas sin comillas.

starwars %>% select(name, hair_color)

# A tibble: 87 × 2
   name               hair_color   
   <chr>              <chr>        
 1 Luke Skywalker     blond        
 2 C-3PO              <NA>         
 3 R2-D2              <NA>         
 4 Darth Vader        none         
 5 Leia Organa        brown        
 6 Owen Lars          brown, grey  
 7 Beru Whitesun lars brown        
 8 R5-D4              <NA>         
 9 Biggs Darklighter  black        
10 Obi-Wan Kenobi     auburn, white
# ℹ 77 more rows
…
Selección columnas: select()

datos |> selecciono(var1, var2, ...)

starwars |> select(var1, var2, ...)

Podemos jugar con patrones en el nombre, aquellas que comiencen por un prefijo (starts_with()), terminen con un sufijo (ends_with()), contengan un texto (contains()) o cumplan una expresión regular (matches()).

# variables cuyo nombre acaba en "color" y contengan sexo o género
starwars |> select(ends_with("color"), matches("sex|gender"))

# A tibble: 87 × 5
   hair_color    skin_color  eye_color sex    gender   
   <chr>         <chr>       <chr>     <chr>  <chr>    
 1 blond         fair        blue      male   masculine
 2 <NA>          gold        yellow    none   masculine
 3 <NA>          white, blue red       none   masculine
 4 none          white       yellow    male   masculine
 5 brown         light       brown     female feminine 
 6 brown, grey   light       blue      male   masculine
 7 brown         light       blue      female feminine 
 8 <NA>          white, red  red       none   masculine
 9 black         light       brown     male   masculine
10 auburn, white fair        blue-gray male   masculine
# ℹ 77 more rows
…
Selección columnas: select()

datos |> selecciono(var1, var2, ...)

starwars |> select(var1, var2, ...)

Por último, podemos seleccionar columnas por tipo de dato haciendo uso de where() y dentro una función que devuelva un valor lógico de tipo de dato.

# Solo columnas numéricas o de texto
starwars |> select(where(is.numeric) | where(is.character))

# A tibble: 87 × 11
   height  mass birth_year name     hair_color skin_color eye_color sex   gender
    <int> <dbl>      <dbl> <chr>    <chr>      <chr>      <chr>     <chr> <chr> 
 1    172    77       19   Luke Sk… blond      fair       blue      male  mascu…
 2    167    75      112   C-3PO    <NA>       gold       yellow    none  mascu…
 3     96    32       33   R2-D2    <NA>       white, bl… red       none  mascu…
 4    202   136       41.9 Darth V… none       white      yellow    male  mascu…
 5    150    49       19   Leia Or… brown      light      brown     fema… femin…
 6    178   120       52   Owen La… brown, gr… light      blue      male  mascu…
 7    165    75       47   Beru Wh… brown      light      blue      fema… femin…
 8     97    32       NA   R5-D4    <NA>       white, red red       none  mascu…
 9    183    84       24   Biggs D… black      light      brown     male  mascu…
10    182    77       57   Obi-Wan… auburn, w… fair       blue-gray male  mascu…
# ℹ 77 more rows
# ℹ 2 more variables: homeworld <chr>, species <chr>

Mover columnas: relocate()

datos |>
  recolocar(var1, despues_de = var2)

starwars |>
  relocate(var1, .after = var2)

Para facilitar la recolocación de variables tenemos una función para ello, relocate(), indicándole en .after o .before detrás o delante de qué columnas queremos moverlas.

starwars |> relocate(species, .before = name)

# A tibble: 87 × 14
   species name    height  mass hair_color skin_color eye_color birth_year sex  
   <chr>   <chr>    <int> <dbl> <chr>      <chr>      <chr>          <dbl> <chr>
 1 Human   Luke S…    172    77 blond      fair       blue            19   male 
 2 Droid   C-3PO      167    75 <NA>       gold       yellow         112   none 
 3 Droid   R2-D2       96    32 <NA>       white, bl… red             33   none 
 4 Human   Darth …    202   136 none       white      yellow          41.9 male 
 5 Human   Leia O…    150    49 brown      light      brown           19   fema…
 6 Human   Owen L…    178   120 brown, gr… light      blue            52   male 
 7 Human   Beru W…    165    75 brown      light      blue            47   fema…
 8 Droid   R5-D4       97    32 <NA>       white, red red             NA   none 
 9 Human   Biggs …    183    84 black      light      brown           24   male 
10 Human   Obi-Wa…    182    77 auburn, w… fair       blue-gray       57   male 
# ℹ 77 more rows
# ℹ 5 more variables: gender <chr>, homeworld <chr>, films <list>,
#   vehicles <list>, starships <list>

Renombrar: rename()

datos |> renombrar(nuevo = antiguo)

starwars |> rename(nuevo = antiguo)

A veces también podemos querer modificar la «metainformación» de los datos, renombrando columnas. Para ello usaremos de rename() poniendo primero el nombre nuevo y luego el antiguo.

starwars |> rename(nombre = name, altura = height, peso = mass)

# A tibble: 87 × 14
   nombre   altura  peso hair_color skin_color eye_color birth_year sex   gender
   <chr>     <int> <dbl> <chr>      <chr>      <chr>          <dbl> <chr> <chr> 
 1 Luke Sk…    172    77 blond      fair       blue            19   male  mascu…
 2 C-3PO       167    75 <NA>       gold       yellow         112   none  mascu…
 3 R2-D2        96    32 <NA>       white, bl… red             33   none  mascu…
 4 Darth V…    202   136 none       white      yellow          41.9 male  mascu…
 5 Leia Or…    150    49 brown      light      brown           19   fema… femin…
 6 Owen La…    178   120 brown, gr… light      blue            52   male  mascu…
 7 Beru Wh…    165    75 brown      light      blue            47   fema… femin…
 8 R5-D4        97    32 <NA>       white, red red             NA   none  mascu…
 9 Biggs D…    183    84 black      light      brown           24   male  mascu…
10 Obi-Wan…    182    77 auburn, w… fair       blue-gray       57   male  mascu…
# ℹ 77 more rows
# ℹ 5 more variables: homeworld <chr>, species <chr>, films <list>,
#   vehicles <list>, starships <list>

Modificar columnas: mutate()

datos |> modificar(nueva = funcion())

starwars |> mutate(nueva = funcion())

En muchas ocasiones queremos modificar o crear variables con mutate(). Vamos a crear por ejemplo una nueva variable height_m con la altura en metros.

starwars |> mutate(height_m = height / 100)

# A tibble: 87 × 15
   name     height  mass hair_color skin_color eye_color birth_year sex   gender
   <chr>     <int> <dbl> <chr>      <chr>      <chr>          <dbl> <chr> <chr> 
 1 Luke Sk…    172    77 blond      fair       blue            19   male  mascu…
 2 C-3PO       167    75 <NA>       gold       yellow         112   none  mascu…
 3 R2-D2        96    32 <NA>       white, bl… red             33   none  mascu…
 4 Darth V…    202   136 none       white      yellow          41.9 male  mascu…
 5 Leia Or…    150    49 brown      light      brown           19   fema… femin…
 6 Owen La…    178   120 brown, gr… light      blue            52   male  mascu…
 7 Beru Wh…    165    75 brown      light      blue            47   fema… femin…
 8 R5-D4        97    32 <NA>       white, red red             NA   none  mascu…
 9 Biggs D…    183    84 black      light      brown           24   male  mascu…
10 Obi-Wan…    182    77 auburn, w… fair       blue-gray       57   male  mascu…
# ℹ 77 more rows
# ℹ 6 more variables: homeworld <chr>, species <chr>, films <list>,
#   vehicles <list>, starships <list>, height_m <dbl>

Modificar columnas: mutate()

datos |> modificar(nueva = funcion())

starwars |> mutate(nueva = funcion())

Además con los argumentos opcionales podemos recolocar la columna modificada

starwars |> 
  mutate(height_m = height / 100,
         IMC = mass / (height_m^2), .before = name)

# A tibble: 87 × 16
   height_m   IMC name   height  mass hair_color skin_color eye_color birth_year
      <dbl> <dbl> <chr>   <int> <dbl> <chr>      <chr>      <chr>          <dbl>
 1     1.72  26.0 Luke …    172    77 blond      fair       blue            19  
 2     1.67  26.9 C-3PO     167    75 <NA>       gold       yellow         112  
 3     0.96  34.7 R2-D2      96    32 <NA>       white, bl… red             33  
 4     2.02  33.3 Darth…    202   136 none       white      yellow          41.9
 5     1.5   21.8 Leia …    150    49 brown      light      brown           19  
 6     1.78  37.9 Owen …    178   120 brown, gr… light      blue            52  
 7     1.65  27.5 Beru …    165    75 brown      light      blue            47  
 8     0.97  34.0 R5-D4      97    32 <NA>       white, red red             NA  
 9     1.83  25.1 Biggs…    183    84 black      light      brown           24  
10     1.82  23.2 Obi-W…    182    77 auburn, w… fair       blue-gray       57  
# ℹ 77 more rows
# ℹ 7 more variables: sex <chr>, gender <chr>, homeworld <chr>, species <chr>,
#   films <list>, vehicles <list>, starships <list>

Modificar columnas: mutate()

datos |> modificar(nueva = funcion())

starwars |> mutate(nueva = funcion())

Importante…

Cuando aplicamos mutate(), debemos de acordarnos que las operaciones se realizan de manera vectorial, elemento a elemento, por lo que la función que usemos dentro debe devolver un vector de igual longitud. En caso contrario, devolverá una constante

starwars |> 
  mutate(constante = mean(mass, na.rm = TRUE), .before = name)

# A tibble: 87 × 15
   constante name  height  mass hair_color skin_color eye_color birth_year sex  
       <dbl> <chr>  <int> <dbl> <chr>      <chr>      <chr>          <dbl> <chr>
 1      97.3 Luke…    172    77 blond      fair       blue            19   male 
 2      97.3 C-3PO    167    75 <NA>       gold       yellow         112   none 
 3      97.3 R2-D2     96    32 <NA>       white, bl… red             33   none 
 4      97.3 Dart…    202   136 none       white      yellow          41.9 male 
 5      97.3 Leia…    150    49 brown      light      brown           19   fema…
 6      97.3 Owen…    178   120 brown, gr… light      blue            52   male 
 7      97.3 Beru…    165    75 brown      light      blue            47   fema…
 8      97.3 R5-D4     97    32 <NA>       white, red red             NA   none 
 9      97.3 Bigg…    183    84 black      light      brown           24   male 
10      97.3 Obi-…    182    77 auburn, w… fair       blue-gray       57   male 
# ℹ 77 more rows
# ℹ 6 more variables: gender <chr>, homeworld <chr>, species <chr>,
#   films <list>, vehicles <list>, starships <list>

Recategorizar: if_else()

También podemos combinar mutate() con la expresión de control if_else() para recategorizar la variable: si se cumple una condición, hace una cosa, en caso contrario otra.

starwars |> 
  mutate(human = if_else(species == "Human", "Human", "Not Human"),
         .after = name) |> 
  select(name:mass)

# A tibble: 87 × 4
   name               human     height  mass
   <chr>              <chr>      <int> <dbl>
 1 Luke Skywalker     Human        172    77
 2 C-3PO              Not Human    167    75
 3 R2-D2              Not Human     96    32
 4 Darth Vader        Human        202   136
 5 Leia Organa        Human        150    49
 6 Owen Lars          Human        178   120
 7 Beru Whitesun lars Human        165    75
 8 R5-D4              Not Human     97    32
 9 Biggs Darklighter  Human        183    84
10 Obi-Wan Kenobi     Human        182    77
# ℹ 77 more rows

Recategorizar: case_when()

Para recategorizaciones más complejas tenemos case_when(), por ejemplo, para crear una categoría de los personajes en función de su altura.

starwars |> 
  drop_na(height) |> 
  mutate(altura = case_when(height < 120 ~ "enanos",
                            height < 160 ~ "bajito",
                            height < 180 ~ "normal",
                            height < 200 ~ "alto",
                            TRUE ~ "gigante"), .before = name)

# A tibble: 81 × 15
   altura  name    height  mass hair_color skin_color eye_color birth_year sex  
   <chr>   <chr>    <int> <dbl> <chr>      <chr>      <chr>          <dbl> <chr>
 1 normal  Luke S…    172    77 blond      fair       blue            19   male 
 2 normal  C-3PO      167    75 <NA>       gold       yellow         112   none 
 3 enanos  R2-D2       96    32 <NA>       white, bl… red             33   none 
 4 gigante Darth …    202   136 none       white      yellow          41.9 male 
 5 bajito  Leia O…    150    49 brown      light      brown           19   fema…
 6 normal  Owen L…    178   120 brown, gr… light      blue            52   male 
 7 normal  Beru W…    165    75 brown      light      blue            47   fema…
 8 enanos  R5-D4       97    32 <NA>       white, red red             NA   none 
 9 alto    Biggs …    183    84 black      light      brown           24   male 
10 alto    Obi-Wa…    182    77 auburn, w… fair       blue-gray       57   male 
# ℹ 71 more rows
# ℹ 6 more variables: gender <chr>, homeworld <chr>, species <chr>,
#   films <list>, vehicles <list>, starships <list>
…
starwars |>
  count(birth_decade = round(birth_year, -1))

Caso real: datos de encuestas

Pongamos en práctica lo aprendido…

Caso real: datos de encuestas

El paquete {readr} (ya en {tidyverse}) nos permite realizar una carga más ágil y más inteligente que el read.csv() de base (lo importa a un tibble e interpreta bien el tipo de cada variable, incluso fechas)

encuestas <- read_csv(file = "./datos/historical_surveys.csv")
encuestas

# A tibble: 3,753 × 59
   type_survey date_elec  id_pollster pollster media    field_date_from
   <chr>       <date>     <chr>       <chr>    <chr>    <date>         
 1 national    1982-10-28 pollster-1  PSOE     <NA>     1982-10-28     
 2 national    1982-10-28 pollster-2  IDEAL    <NA>     1982-10-28     
 3 national    1982-10-28 pollster-3  SOFEMASA EL PAÍS  1982-10-16     
 4 national    1982-10-28 pollster-4  GRUPO 16 GRUPO 16 1982-10-09     
 5 national    1982-10-28 pollster-3  SOFEMASA EL PAÍS  1982-10-01     
 6 national    1982-10-28 pollster-4  GRUPO 16 GRUPO 16 1982-09-25     
 7 national    1982-10-28 pollster-3  SOFEMASA EL PAÍS  1982-09-24     
 8 national    1982-10-28 pollster-5  AP       <NA>     1982-09-27     
 9 national    1982-10-28 pollster-6  GALLUP   <NA>     1982-09-06     
10 national    1982-10-28 pollster-4  GRUPO 16 GRUPO 16 1982-09-05     
# ℹ 3,743 more rows
# ℹ 53 more variables: field_date_to <date>, exit_poll <lgl>, size <dbl>,
#   turnout <dbl>, UCD <dbl>, PSOE <dbl>, PCE <dbl>, AP <dbl>, CIU <dbl>,
#   PA <dbl>, `EAJ-PNV` <dbl>, HB <dbl>, ERC <dbl>, EE <dbl>, CDS <dbl>,
#   FN <dbl>, PAD <dbl>, PRD <dbl>, MUC <dbl>, IU <dbl>, CG <dbl>, PAR <dbl>,
#   AIC <dbl>, UV <dbl>, EA <dbl>, PP <dbl>, LV <dbl>, ARM <dbl>, PDP <dbl>,
#   CC <dbl>, PAP <dbl>, BNG <dbl>, ICV <dbl>, EH <dbl>, UPYD <dbl>, …
…
Caso real: datos de encuestas

Novena tarea: obtén, por cada elección, la media de las encuestas de cada partido

Código

encuestas |>
  # Resumen: media de voto por fecha y partido
  summarise(media_voto = mean(est_voto),
            .by = c("date_elec", "partido"))

# A tibble: 137 × 3
   date_elec  partido media_voto
   <date>     <chr>        <dbl>
 1 1986-06-22 PSOE         45.7 
 2 1986-06-22 AP           22.8 
 3 1986-06-22 CIU           3.9 
 4 1986-06-22 EAJ-PNV       1.82
 5 1986-06-22 HB            1.27
 6 1986-06-22 EE            0.5 
 7 1986-06-22 CDS           4.33
 8 1986-06-22 PRD           4   
 9 1986-06-22 MUC           2.8 
10 1986-06-22 IU            5.5 
# ℹ 127 more rows
…
Décima tarea: realiza lo mismo que la tarea anterior pero solo para las encuestas de los 60 días previos a las elecciones. Ordena la salida de reciente a antiguo

Código

encuestas |>
  # Filtramos ventana de 60 días
  dplyr::filter(n_dias_elec <= 60) |>
  # Media de est_voto por fecha y partido
  summarise(media_voto = mean(est_voto),
            .by = c("date_elec", "partido")) |>
  # Ordenar de mayor a menor
  arrange(desc(date_elec))

# A tibble: 122 × 3
   date_elec  partido     media_voto
   <date>     <chr>            <dbl>
 1 2019-11-10 PSOE              30.6
 2 2019-11-10 EAJ-PNV            1.5
 3 2019-11-10 ERC                4.4
 4 2019-11-10 PP                18.6
 5 2019-11-10 CS                10.3
 6 2019-11-10 EH-BILDU           1.2
 7 2019-11-10 UP                13.6
 8 2019-11-10 VOX               10.0
 9 2019-11-10 JXCAT-JUNTS        1.8
10 2019-11-10 NA-SUMA            0.4
# ℹ 112 more rows
…
Código

encuestas |> 
  # Filtramos ventana de 60 días
  dplyr::filter(n_dias_elec <= 60) |> 
  # Media de est_voto por fecha y partido
  summarise(media_voto = mean(est_voto),
            .by = c("date_elec", "partido")) |>
  # Ordenar de mayor a menor por fecha
  arrange(desc(date_elec)) |>
  # extraemos los dos con más est de voto (por cada fecha)
  slice_max(media_voto, n = 2, by = date_elec)

# A tibble: 22 × 3
   date_elec  partido media_voto
   <date>     <chr>        <dbl>
 1 2019-11-10 PSOE          30.6
 2 2019-11-10 PP            18.6
 3 2019-04-28 PSOE          30.3
 4 2019-04-28 PP            19.3
 5 2016-06-26 PP            29.4
 6 2016-06-26 UP            25.4
 7 2015-12-20 PP            28.2
 8 2015-12-20 PSOE          20.4
 9 2011-11-20 PP            46.0
10 2011-11-20 PSOE          32.4
# ℹ 12 more rows
…
